{
  "devices": [
    {
      "id": 32,
      "label": "IPhone XY",
      "os": "ios",
      "releaseDate": 1591002407000,
      "rate": 4,
      "madeIn": "China",
      "memory": 4566,
      "price": 600
    },
    {
      "id": 3,
      "label": "Samsung S19",
      "os": "android",
      "releaseDate": 1591002407000,
      "rate": 3,
      "madeIn": "Korea",
      "memory": 16000,
      "price": 900
    },
    {
      "label": "sdgsdb",
      "price": 23423,
      "id": 34
    },
    {
      "label": "wefewf",
      "price": 2323,
      "id": 35
    },
    {
      "label": "wefwe",
      "price": 12312,
      "id": 36
    },
    {
      "label": "wefew",
      "price": 23423,
      "id": 37
    },
    {
      "label": "wefew",
      "price": 23432,
      "id": 38
    },
    {
      "label": "wefewf",
      "price": 2323,
      "id": 39
    },
    {
      "label": "wefew",
      "price": 23423,
      "id": 40
    },
    {
      "label": "efewf",
      "price": 23423,
      "id": 41
    },
    {
      "label": "ewfew",
      "price": 231423,
      "id": 42
    },
    {
      "label": "ewfewf",
      "price": 23423,
      "id": 43
    },
    {
      "label": "wefew",
      "price": 23232,
      "id": 45
    }
  ],
  "login": {
    "token": "fouhweouhfewouhfoewhfew",
    "role": "Admin",
    "displayName": "Fabio Biondi"
  },
  "get-plan": {
    "result": "pro"
  }
}